Replication of “Community-Based Fact-Checking on Twitter’s Birdwatch Platform”
…
view(join_notes_rating_tweets)

# Ensure classification is a factor or numeric and not introducing NAs
join_notes_rating_tweets <- join_notes_rating_tweets %>%
  mutate(
    classification = as.factor(classification),
    account_age = as.integer(interval(source_account_created_at, Sys.Date()) / years(1))
  )
view(join_notes_rating_tweets)

join_notes_rating_tweets %>% mutate(across(c(source_followers_count, source_friends_count, word_count, account_age), scale))

## # A tibble: 35,090 × 39
##     noteId tweetId.x source_user_id source_created_at   source_is_quote
##      <dbl>     <dbl>          <dbl> <dttm>              <lgl>          
##  1 1.36e18   1.35e18       39344374 2021-01-22 23:06:44 FALSE          
##  2 1.36e18   1.35e18       39344374 2021-01-22 23:06:44 FALSE          
##  3 1.36e18   1.35e18       39344374 2021-01-22 23:06:44 FALSE          
##  4 1.36e18   1.35e18       39344374 2021-01-22 23:06:44 FALSE          
##  5 1.38e18   1.38e18             NA NA                  NA             
##  6 1.38e18   1.38e18             NA NA                  NA             
##  7 1.42e18   1.42e18     3551446154 2021-07-16 18:34:50 FALSE          
##  8 1.42e18   1.42e18     3551446154 2021-07-16 18:34:50 FALSE          
##  9 1.42e18   1.42e18     3551446154 2021-07-16 18:34:50 FALSE          
## 10 1.42e18   1.42e18     3551446154 2021-07-16 18:34:50 FALSE          
## # ℹ 35,080 more rows
## # ℹ 34 more variables: source_is_retweet <lgl>, source_favorite_count <dbl>,
## #   source_retweet_count <dbl>, source_quote_count <lgl>,
## #   source_reply_count <lgl>, source_followers_count <dbl[,1]>,
## #   source_verified <lgl>, source_friends_count <dbl[,1]>,
## #   source_account_created_at <dttm>, noteAuthorParticipantId <chr>,
## #   createdAtMillis <dbl>, tweetId.y <dbl>, classification <fct>, …
…
